<svg width="24" height="24" viewBox="0 0 24 24" fill="none" xmlns="http://www.w3.org/2000/svg">
<path d="M21.5 10V18.5C21.5 20.16 20.16 21.5 18.5 21.5H4.32996" stroke="white" stroke-miterlimit="10"/>
<path d="M2.5 19.6V2.5H14" stroke="white" stroke-miterlimit="10"/>
<path d="M2.5 23C3.32843 23 4 22.3284 4 21.5C4 20.6716 3.32843 20 2.5 20C1.67157 20 1 20.6716 1 21.5C1 22.3284 1.67157 23 2.5 23Z" stroke="white" stroke-miterlimit="10"/>
<path d="M15.87 3.87L20.13 8.13" stroke="white" stroke-miterlimit="10"/>
<path d="M7.73999 12L12 16.26" stroke="white" stroke-miterlimit="10"/>
<path d="M12 16.26L6.26001 17.74L7.74001 12L19.02 0.719971L23.28 4.97997L12 16.26Z" stroke="white" stroke-miterlimit="10"/>
<path d="M7.09001 15.61L6.26001 17.74L8.39001 16.91L7.09001 15.61Z" fill="white"/>
</svg>
