<svg width="24" height="24" viewBox="0 0 24 24" fill="none" xmlns="http://www.w3.org/2000/svg">
<path d="M22 13.5V18.5C22 20.16 20.66 21.5 19 21.5H2V15.5" stroke="#171321" stroke-miterlimit="10"/>
<path d="M2 10.18V2.5H22V8.5" stroke="#171321" stroke-miterlimit="10"/>
<path d="M2 13.5C2.82843 13.5 3.5 12.8284 3.5 12C3.5 11.1716 2.82843 10.5 2 10.5C1.17157 10.5 0.5 11.1716 0.5 12C0.5 12.8284 1.17157 13.5 2 13.5Z" stroke="#171321" stroke-miterlimit="10"/>
<path d="M22 13.5C22.8284 13.5 23.5 12.8284 23.5 12C23.5 11.1716 22.8284 10.5 22 10.5C21.1716 10.5 20.5 11.1716 20.5 12C20.5 12.8284 21.1716 13.5 22 13.5Z" stroke="#171321" stroke-miterlimit="10"/>
<path d="M10.72 15.5701L13.28 8.43005" stroke="#171321" stroke-miterlimit="10"/>
<path d="M15.55 9.44995L18.11 12L15.55 14.55" stroke="#171321" stroke-miterlimit="10"/>
<path d="M8.44989 14.55L5.88989 12L8.44989 9.44995" stroke="#171321" stroke-miterlimit="10"/>
</svg>
