<svg width="35" height="35" viewBox="0 0 35 35" fill="none" xmlns="http://www.w3.org/2000/svg">
<g clip-path="url(#clip0_854_2420)">
<path d="M17.5002 35C27.1652 35 35.0002 27.165 35.0002 17.5C35.0002 7.83502 27.1652 0 17.5002 0C7.83526 0 0.000244141 7.83502 0.000244141 17.5C0.000244141 27.165 7.83526 35 17.5002 35Z" fill="#9B51E0"/>
<path d="M13.5375 21.2291C11.4135 19.1051 11.4135 15.6615 13.5375 13.5375C15.6615 11.4135 19.1051 11.4135 21.2291 13.5375C23.3531 15.6615 23.3531 19.1051 21.2291 21.2291C19.1051 23.3531 15.6615 23.3531 13.5375 21.2291Z" stroke="white" stroke-width="2.5" stroke-miterlimit="10" stroke-linecap="round" stroke-linejoin="round"/>
<path d="M13.5374 21.2292L20.1907 27.8824" stroke="white" stroke-width="2.5" stroke-miterlimit="10" stroke-linecap="round" stroke-linejoin="round"/>
<path d="M21.2293 21.2291L27.8826 14.5758" stroke="white" stroke-width="2.5" stroke-miterlimit="10" stroke-linecap="round" stroke-linejoin="round"/>
<path d="M21.2292 13.5375L14.576 6.8842" stroke="white" stroke-width="2.5" stroke-miterlimit="10" stroke-linecap="round" stroke-linejoin="round"/>
<path d="M13.5378 13.5375L6.88456 20.1908" stroke="white" stroke-width="2.5" stroke-miterlimit="10" stroke-linecap="round" stroke-linejoin="round"/>
<path d="M9.69188 25.075C5.4439 20.827 5.4439 13.9396 9.69188 9.69165C13.9399 5.44366 20.8272 5.44366 25.0752 9.69165C29.3232 13.9396 29.3232 20.827 25.0752 25.075C20.8272 29.3229 13.9399 29.3229 9.69188 25.075Z" stroke="white" stroke-width="2.5" stroke-miterlimit="10" stroke-linecap="round" stroke-linejoin="round"/>
</g>
<path d="M17.5 35C27.165 35 35 27.165 35 17.5C35 7.83502 27.165 0 17.5 0C7.83502 0 0 7.83502 0 17.5C0 27.165 7.83502 35 17.5 35Z" fill="#F96424"/>
<path d="M8.41309 11.7499C10.2516 8.29997 13.6134 6 17.5006 6C23.2787 6 28.0063 11.1749 28.0063 17.4999C28.0063 17.7299 28.0063 17.9599 28.0063 18.1899" stroke="white" stroke-width="2.5" stroke-miterlimit="10" stroke-linecap="round" stroke-linejoin="round"/>
<path d="M26.6394 23.1926C24.8534 26.6427 21.4391 29.0002 17.4994 29.0002C11.7212 29.0002 6.99365 23.8251 6.99365 17.5001C6.99365 17.2126 6.99365 16.9826 6.99365 16.6951" stroke="white" stroke-width="2.5" stroke-miterlimit="10" stroke-linecap="round" stroke-linejoin="round"/>
<path d="M25.0117 16.0044L28.0059 19.2246L31 16.0044" stroke="white" stroke-width="2.5" stroke-miterlimit="10" stroke-linecap="round" stroke-linejoin="round"/>
<path d="M9.98828 18.3046L6.99414 15.0845L4 18.3046" stroke="white" stroke-width="2.5" stroke-miterlimit="10" stroke-linecap="round" stroke-linejoin="round"/>
<path d="M10.4087 25.8376C12.2472 24.0551 14.6635 23.02 17.29 23.02C19.9164 23.02 22.3852 24.1126 24.2238 25.8951" stroke="white" stroke-width="2.5" stroke-miterlimit="10" stroke-linecap="round" stroke-linejoin="round"/>
<path d="M17.3423 19.9725C19.199 19.9725 20.7042 18.3249 20.7042 16.2925C20.7042 14.2601 19.199 12.6125 17.3423 12.6125C15.4856 12.6125 13.9805 14.2601 13.9805 16.2925C13.9805 18.3249 15.4856 19.9725 17.3423 19.9725Z" stroke="white" stroke-width="2.5" stroke-miterlimit="10" stroke-linecap="round" stroke-linejoin="round"/>
<defs>
<clipPath id="clip0_854_2420">
<rect width="35" height="35" fill="white"/>
</clipPath>
</defs>
</svg>
