<svg width="48" height="48" viewBox="0 0 48 48" fill="none" xmlns="http://www.w3.org/2000/svg">
<path d="M0.959717 10.2817H41.9517V29.0641" stroke="#171321" stroke-width="1.27982" stroke-linecap="round" stroke-linejoin="round"/>
<path d="M41.9517 32.6305H0.959717V13.6513" stroke="#171321" stroke-width="1.27982" stroke-linecap="round" stroke-linejoin="round"/>
<path d="M6.05054 33.1728V37.7184H47.0425V15.3696H41.9545" stroke="#171321" stroke-width="1.27982" stroke-linecap="round" stroke-linejoin="round"/>
<path d="M21.4595 28.5888C25.3988 28.5888 28.5923 25.3953 28.5923 21.456C28.5923 17.5166 25.3988 14.3232 21.4595 14.3232C17.5201 14.3232 14.3267 17.5166 14.3267 21.456C14.3267 25.3953 17.5201 28.5888 21.4595 28.5888Z" stroke="#171321" stroke-width="1.27982" stroke-linecap="round" stroke-linejoin="round"/>
</svg>
