<svg width="40" height="40" viewBox="0 0 40 40" fill="none" xmlns="http://www.w3.org/2000/svg">
<path d="M0.800003 23.42H39.2V26.4C39.2 27.1161 38.9155 27.8029 38.4092 28.3092C37.9028 28.8156 37.2161 29.1 36.5 29.1H3.5C2.78392 29.1 2.09716 28.8156 1.59081 28.3092C1.08447 27.8029 0.800003 27.1161 0.800003 26.4V23.42Z" fill="#AFA3C6"/>
<path d="M37.064 29.896H2.936C2.15732 29.896 1.41054 29.5867 0.859935 29.0361C0.309328 28.4855 0 27.7387 0 26.96V4.264C0 3.48533 0.309328 2.73854 0.859935 2.18794C1.41054 1.63733 2.15732 1.328 2.936 1.328C3.14817 1.328 3.35166 1.41229 3.50169 1.56232C3.65171 1.71235 3.736 1.91583 3.736 2.128C3.736 2.34018 3.65171 2.54366 3.50169 2.69369C3.35166 2.84372 3.14817 2.928 2.936 2.928C2.582 2.92906 2.24279 3.07015 1.99247 3.32047C1.74215 3.57079 1.60106 3.91 1.6 4.264V26.96C1.60106 27.314 1.74215 27.6532 1.99247 27.9035C2.24279 28.1539 2.582 28.2949 2.936 28.296H37.064C37.418 28.2949 37.7572 28.1539 38.0075 27.9035C38.2579 27.6532 38.3989 27.314 38.4 26.96V4.264C38.3989 3.91 38.2579 3.57079 38.0075 3.32047C37.7572 3.07015 37.418 2.92906 37.064 2.928H6.312C6.09983 2.928 5.89634 2.84372 5.74631 2.69369C5.59629 2.54366 5.512 2.34018 5.512 2.128C5.512 1.91583 5.59629 1.71235 5.74631 1.56232C5.89634 1.41229 6.09983 1.328 6.312 1.328H37.064C37.4496 1.328 37.8313 1.40394 38.1876 1.55149C38.5438 1.69904 38.8674 1.9153 39.1401 2.18794C39.4127 2.46057 39.629 2.78423 39.7765 3.14044C39.9241 3.49666 40 3.87844 40 4.264V26.96C40 27.7387 39.6907 28.4855 39.1401 29.0361C38.5895 29.5867 37.8427 29.896 37.064 29.896Z" fill="#380D75"/>
<path d="M38.716 24.22H0.8C0.587827 24.22 0.384344 24.1357 0.234315 23.9857C0.0842855 23.8357 0 23.6322 0 23.42C0 23.2078 0.0842855 23.0043 0.234315 22.8543C0.384344 22.7043 0.587827 22.62 0.8 22.62H38.716C38.9282 22.62 39.1317 22.7043 39.2817 22.8543C39.4317 23.0043 39.516 23.2078 39.516 23.42C39.516 23.6322 39.4317 23.8357 39.2817 23.9857C39.1317 24.1357 38.9282 24.22 38.716 24.22Z" fill="#380D75"/>
<path d="M24.956 35.2H15.044C14.8318 35.2 14.6283 35.1157 14.4783 34.9657C14.3283 34.8157 14.244 34.6122 14.244 34.4V29.096C14.244 28.8838 14.3283 28.6804 14.4783 28.5303C14.6283 28.3803 14.8318 28.296 15.044 28.296C15.2562 28.296 15.4597 28.3803 15.6097 28.5303C15.7597 28.6804 15.844 28.8838 15.844 29.096V33.6H24.156V31.928C24.156 31.7158 24.2403 31.5124 24.3903 31.3623C24.5403 31.2123 24.7438 31.128 24.956 31.128C25.1682 31.128 25.3717 31.2123 25.5217 31.3623C25.6717 31.5124 25.756 31.7158 25.756 31.928V34.4C25.756 34.6122 25.6717 34.8157 25.5217 34.9657C25.3717 35.1157 25.1682 35.2 24.956 35.2Z" fill="#380D75"/>
<path d="M29.328 38.672H10.672C10.4598 38.672 10.2563 38.5877 10.1063 38.4377C9.95628 38.2876 9.87199 38.0841 9.87199 37.872V36.8C9.88041 35.9497 10.2235 35.1371 10.827 34.5381C11.4305 33.9391 12.2457 33.602 13.096 33.6H26.904C27.7543 33.602 28.5695 33.9391 29.173 34.5381C29.7765 35.1371 30.1196 35.9497 30.128 36.8V37.856C30.1301 37.9624 30.111 38.0681 30.0718 38.167C30.0325 38.266 29.9739 38.356 29.8994 38.432C29.8249 38.508 29.736 38.5684 29.6379 38.6096C29.5398 38.6508 29.4344 38.672 29.328 38.672ZM11.472 37.072H28.528V36.8C28.5207 36.3738 28.3465 35.9674 28.0428 35.6683C27.7392 35.3691 27.3303 35.201 26.904 35.2H13.096C12.6697 35.201 12.2608 35.3691 11.9572 35.6683C11.6535 35.9674 11.4793 36.3738 11.472 36.8V37.072Z" fill="#380D75"/>
<path d="M20 18.832L26.376 14.128C26.4618 14.0641 26.5255 13.9751 26.5585 13.8733C26.5915 13.7716 26.592 13.6621 26.56 13.56L24.364 6.69201C24.3477 6.64115 24.3157 6.59678 24.2726 6.56529C24.2294 6.53381 24.1774 6.51685 24.124 6.51685C24.0706 6.51685 24.0186 6.53381 23.9754 6.56529C23.9323 6.59678 23.9003 6.64115 23.884 6.69201L22.424 11.252H17.576L16.116 6.69201C16.0997 6.64115 16.0677 6.59678 16.0246 6.56529C15.9814 6.53381 15.9294 6.51685 15.876 6.51685C15.8226 6.51685 15.7706 6.53381 15.7274 6.56529C15.6843 6.59678 15.6523 6.64115 15.636 6.69201L13.44 13.56C13.408 13.6621 13.4085 13.7716 13.4415 13.8733C13.4745 13.9751 13.5382 14.0641 13.624 14.128L20 18.832Z" fill="#FC6D26"/>
<path d="M20 19.6319C19.8301 19.6314 19.6648 19.5767 19.528 19.4759L13.128 14.7719C12.9076 14.6086 12.7439 14.3804 12.6599 14.1192C12.576 13.858 12.576 13.5771 12.66 13.3159L14.856 6.44795C14.9247 6.23482 15.0594 6.04905 15.2406 5.91748C15.4218 5.7859 15.6401 5.71532 15.864 5.71595C16.0856 5.71686 16.3012 5.78828 16.4796 5.91989C16.6579 6.05149 16.7898 6.23643 16.856 6.44795L18.14 10.4479H21.82L23.104 6.44795C23.1729 6.23704 23.3067 6.05331 23.4863 5.92303C23.6659 5.79276 23.8821 5.7226 24.104 5.7226C24.3259 5.7226 24.5421 5.79276 24.7217 5.92303C24.9013 6.05331 25.0351 6.23704 25.104 6.44795L27.32 13.3159C27.404 13.5771 27.404 13.858 27.3201 14.1192C27.2361 14.3804 27.0724 14.6086 26.852 14.7719L20.476 19.4759C20.3381 19.5776 20.1713 19.6322 20 19.6319ZM14.264 13.5999L20 17.8359L25.736 13.5999L24.136 8.56395L23.2 11.4959C23.1484 11.6571 23.047 11.7977 22.9105 11.8976C22.7739 11.9975 22.6092 12.0515 22.44 12.0519H17.576C17.4046 12.0552 17.2366 12.0034 17.0969 11.904C16.9572 11.8046 16.8531 11.663 16.8 11.4999L15.86 8.56795L14.264 13.5999Z" fill="#380D75"/>
</svg>
